data_gcd/simulation/qsim/GCD.msim.vcd
$comment
	File created using the following command:
		vcd file GCD.msim.vcd -direction
$end
$date
	Thu Apr 12 11:00:30 2018
$end
$version
	ModelSim Version 10.1d
$end
$timescale
	1ps
$end
$scope module GCD_vlg_vec_tst $end
$var reg 8 ! A [7:0] $end
$var reg 8 " B [7:0] $end
$var reg 1 # clk $end
$var reg 1 $ RST $end
$var wire 1 % FIM $end
$var wire 1 & SAIDA [7] $end
$var wire 1 ' SAIDA [6] $end
$var wire 1 ( SAIDA [5] $end
$var wire 1 ) SAIDA [4] $end
$var wire 1 * SAIDA [3] $end
$var wire 1 + SAIDA [2] $end
$var wire 1 , SAIDA [1] $end
$var wire 1 - SAIDA [0] $end
$var wire 1 . sampler $end
$scope module i1 $end
$var wire 1 / gnd $end
$var wire 1 0 vcc $end
$var wire 1 1 unknown $end
$var tri1 1 2 devclrn $end
$var tri1 1 3 devpor $end
$var tri1 1 4 devoe $end
$var wire 1 5 FIM~output_o $end
$var wire 1 6 SAIDA[7]~output_o $end
$var wire 1 7 SAIDA[6]~output_o $end
$var wire 1 8 SAIDA[5]~output_o $end
$var wire 1 9 SAIDA[4]~output_o $end
$var wire 1 : SAIDA[3]~output_o $end
$var wire 1 ; SAIDA[2]~output_o $end
$var wire 1 < SAIDA[1]~output_o $end
$var wire 1 = SAIDA[0]~output_o $end
$var wire 1 > clk~input_o $end
$var wire 1 ? clk~inputclkctrl_outclk $end
$var wire 1 @ RST~input_o $end
$var wire 1 A control|est.INI~0_combout $end
$var wire 1 B control|est.INI~q $end
$var wire 1 C control|est~13_combout $end
$var wire 1 D control|est.L_AB~q $end
$var wire 1 E control|est~10_combout $end
$var wire 1 F control|est~12_combout $end
$var wire 1 G control|est.L_B~q $end
$var wire 1 H control|LB~combout $end
$var wire 1 I control|LB~clkctrl_outclk $end
$var wire 1 J B[7]~input_o $end
$var wire 1 K datap|auxB[7]~7_combout $end
$var wire 1 L RST~inputclkctrl_outclk $end
$var wire 1 M datap|Add0~2_combout $end
$var wire 1 N A[6]~input_o $end
$var wire 1 O datap|auxA[6]~1_combout $end
$var wire 1 P datap|Add0~3_combout $end
$var wire 1 Q A[5]~input_o $end
$var wire 1 R B[5]~input_o $end
$var wire 1 S datap|auxB[5]~5_combout $end
$var wire 1 T datap|Add0~4_combout $end
$var wire 1 U datap|Add0~7_combout $end
$var wire 1 V B[3]~input_o $end
$var wire 1 W A[3]~input_o $end
$var wire 1 X datap|auxA[3]~4_combout $end
$var wire 1 Y datap|Add0~9_combout $end
$var wire 1 Z B[2]~input_o $end
$var wire 1 [ A[2]~input_o $end
$var wire 1 \ datap|auxA[2]~5_combout $end
$var wire 1 ] datap|Add0~11_combout $end
$var wire 1 ^ A[1]~input_o $end
$var wire 1 _ B[1]~input_o $end
$var wire 1 ` datap|auxB[1]~1_combout $end
$var wire 1 a datap|Add0~12_combout $end
$var wire 1 b A[0]~input_o $end
$var wire 1 c B[0]~input_o $end
$var wire 1 d datap|auxB[0]~0_combout $end
$var wire 1 e datap|Add0~14_combout $end
$var wire 1 f datap|Add0~16_combout $end
$var wire 1 g datap|auxA[0]~7_combout $end
$var wire 1 h datap|Add0~15_combout $end
$var wire 1 i datap|Add0~17 $end
$var wire 1 j datap|Add0~18_combout $end
$var wire 1 k datap|auxA[1]~6_combout $end
$var wire 1 l datap|Add0~13_combout $end
$var wire 1 m datap|Add0~19 $end
$var wire 1 n datap|Add0~20_combout $end
$var wire 1 o datap|auxB[2]~2_combout $end
$var wire 1 p datap|Add0~10_combout $end
$var wire 1 q datap|Add0~21 $end
$var wire 1 r datap|Add0~22_combout $end
$var wire 1 s datap|auxB[3]~3_combout $end
$var wire 1 t datap|Add0~8_combout $end
$var wire 1 u datap|Add0~23 $end
$var wire 1 v datap|Add0~24_combout $end
$var wire 1 w B[4]~input_o $end
$var wire 1 x datap|auxB[4]~4_combout $end
$var wire 1 y datap|Add0~6_combout $end
$var wire 1 z datap|Add0~25 $end
$var wire 1 { datap|Add0~26_combout $end
$var wire 1 | datap|auxA[5]~2_combout $end
$var wire 1 } datap|Add0~5_combout $end
$var wire 1 ~ datap|Add0~27 $end
$var wire 1 !! datap|Add0~28_combout $end
$var wire 1 "! B[6]~input_o $end
$var wire 1 #! datap|auxB[6]~6_combout $end
$var wire 1 $! datap|LessThan1~1_cout $end
$var wire 1 %! datap|LessThan1~3_cout $end
$var wire 1 &! datap|LessThan1~5_cout $end
$var wire 1 '! datap|LessThan1~7_cout $end
$var wire 1 (! datap|LessThan1~9_cout $end
$var wire 1 )! datap|LessThan1~11_cout $end
$var wire 1 *! datap|LessThan1~13_cout $end
$var wire 1 +! datap|LessThan1~14_combout $end
$var wire 1 ,! control|Selector0~0_combout $end
$var wire 1 -! control|Selector0~1_combout $end
$var wire 1 .! control|est.DEC~q $end
$var wire 1 /! control|est~11_combout $end
$var wire 1 0! control|est.pL_B~q $end
$var wire 1 1! datap|Add0~1_combout $end
$var wire 1 2! datap|Add0~0_combout $end
$var wire 1 3! datap|Add0~29 $end
$var wire 1 4! datap|Add0~30_combout $end
$var wire 1 5! A[7]~input_o $end
$var wire 1 6! datap|auxA[7]~0_combout $end
$var wire 1 7! datap|LessThan0~1_cout $end
$var wire 1 8! datap|LessThan0~3_cout $end
$var wire 1 9! datap|LessThan0~5_cout $end
$var wire 1 :! datap|LessThan0~7_cout $end
$var wire 1 ;! datap|LessThan0~9_cout $end
$var wire 1 <! datap|LessThan0~11_cout $end
$var wire 1 =! datap|LessThan0~13_cout $end
$var wire 1 >! datap|LessThan0~14_combout $end
$var wire 1 ?! control|est~14_combout $end
$var wire 1 @! control|est.L_A~q $end
$var wire 1 A! control|LA~combout $end
$var wire 1 B! control|LA~clkctrl_outclk $end
$var wire 1 C! A[4]~input_o $end
$var wire 1 D! datap|auxA[4]~3_combout $end
$var wire 1 E! datap|Equal0~2_combout $end
$var wire 1 F! datap|Equal0~0_combout $end
$var wire 1 G! datap|Equal0~3_combout $end
$var wire 1 H! datap|Equal0~1_combout $end
$var wire 1 I! datap|Equal0~4_combout $end
$var wire 1 J! control|est~9_combout $end
$var wire 1 K! control|est.DONE~q $end
$var wire 1 L! datap|out_regB [7] $end
$var wire 1 M! datap|out_regB [6] $end
$var wire 1 N! datap|out_regB [5] $end
$var wire 1 O! datap|out_regB [4] $end
$var wire 1 P! datap|out_regB [3] $end
$var wire 1 Q! datap|out_regB [2] $end
$var wire 1 R! datap|out_regB [1] $end
$var wire 1 S! datap|out_regB [0] $end
$var wire 1 T! datap|out_regA [7] $end
$var wire 1 U! datap|out_regA [6] $end
$var wire 1 V! datap|out_regA [5] $end
$var wire 1 W! datap|out_regA [4] $end
$var wire 1 X! datap|out_regA [3] $end
$var wire 1 Y! datap|out_regA [2] $end
$var wire 1 Z! datap|out_regA [1] $end
$var wire 1 [! datap|out_regA [0] $end
$upscope $end
$upscope $end
$enddefinitions $end
#0
$dumpvars
b1001000 !
b101101 "
0#
1$
x%
x-
x,
x+
x*
x)
x(
x'
x&
x.
0/
10
x1
12
13
14
x5
x6
x7
x8
x9
x:
x;
x<
x=
0>
x?
1@
xA
0B
xC
0D
xE
xF
0G
xH
xI
0J
xK
xL
xM
1N
xO
xP
0Q
1R
xS
xT
xU
1V
1W
xX
xY
1Z
0[
x\
x]
0^
0_
x`
xa
0b
1c
xd
xe
xf
xg
xh
xi
xj
xk
xl
xm
xn
xo
xp
xq
xr
xs
xt
xu
xv
0w
xx
xy
xz
x{
x|
x}
x~
x!!
0"!
x#!
x$!
x%!
x&!
x'!
x(!
x)!
x*!
x+!
x,!
x-!
0.!
x/!
00!
x1!
x2!
x3!
x4!
05!
x6!
x7!
x8!
x9!
x:!
x;!
x<!
x=!
x>!
x?!
0@!
xA!
xB!
0C!
xD!
xE!
xF!
xG!
xH!
xI!
xJ!
0K!
0S!
0R!
0Q!
0P!
0O!
0N!
0M!
0L!
0[!
0Z!
0Y!
0X!
0W!
0V!
0U!
0T!
$end
#378
0?
#390
1L
#539
0J!
#557
0A!
#560
0?!
#564
0t
#567
0,!
#634
0F
#700
0h
#746
0P
#748
0}
#785
0y
#793
1F!
#800
0/!
#850
0H
#889
0T
#892
0e
0p
#893
0a
#919
0l
#920
0]
#954
1G!
#979
0U
0Y
#999
07!
#1011
0$!
#1057
18!
#1069
1%!
#1071
01!
02!
#1075
1E!
#1091
0M
#1115
09!
#1127
0&!
#1173
1:!
#1185
1'!
#1231
0;!
#1243
0(!
#1289
1<!
#1301
1)!
#1347
0=!
#1359
0*!
#1471
0x
#1585
1H!
#1632
0f
#1679
0A
#1685
1i
#1697
0E
#1743
0m
#1784
0>!
#1796
0+!
#1801
1q
#1834
0B!
#1848
1s
#1859
0u
#1887
1I!
#1917
1z
#1975
0~
#1977
0C
#2033
13!
#2106
0I
#2122
0j
#2180
0n
#2238
0r
#2296
0v
#2354
0{
#2412
0!!
#2470
04!
#2662
0-!
#3759
1O
#3766
0<
0,
#3773
1S
#3878
0K
#3890
1X
#3895
0;
0+
#3898
0\
#3947
1o
0`
#4027
1d
#4088
0g
#4145
0=
0|
0-
#4148
07
0'
#4162
05
0%
#4220
06
0&
#4283
06!
#4307
0k
#4333
0#!
#4338
09
0)
#4446
08
0(
#4512
0D!
#4684
0:
0*
#5000
1#
0.
#5527
1>
#5917
1?
#10000
0$
0#
1.
#10701
0>
0@
#11079
0?
0L
#12316
1A
#12598
1C
#15000
1#
0.
#15527
1>
#15917
1?
#17547
1B
1D
#17904
0C
#18051
1A!
#18371
1H
#18821
0X
0S
#18822
0O
0d
#18841
0o
0s
#19000
b1000 !
b0 !
b1101 "
b101 "
b1 "
b0 "
1.
#19329
1B!
#19620
1I
#19681
0Z
0c
#19691
0N
0V
#19698
0R
#19708
0W
#20000
0#
0.
#20111
1-!
#20455
1X
#20457
1O
#20701
0>
#20884
1o
1s
#20912
1d
#20914
1S
#20956
1U!
1X!
#21079
0?
#21243
1N!
1S!
1Q!
1P!
#21496
0s
#21623
1Y
#21666
1P
#21725
1p
#21737
1T
#21745
1e
#21754
1t
#21926
0E!
#21928
0H!
#21964
0G!
#21980
0F!
#22170
0)!
#22192
1r
#22244
0I!
#22286
1&!
#22323
1$!
#22344
0'!
#22381
0%!
#22384
0q
#22400
0i
#22402
1(!
#22425
1n
#22432
1f
#22439
1=!
#22442
1u
#22458
1m
#22500
0z
#22578
1!!
#22737
1E
#22746
1~
#22855
1j
#22894
1>!
#22895
0n
#22897
1v
#23183
0!!
#23736
0S
#23739
0O
#23881
0X
#23972
0o
#24043
0d
#25000
1#
1.
#25150
17
1'
#25527
1>
#25649
1:
1*
#25917
1?
#27547
0D
#27548
1.!
#28036
1?!
#28119
0A!
#28397
0H
#29396
0B!
#29653
0I
#30000
0#
0.
#30209
0-!
#30510
1D!
#30547
1X
#30549
1g
#30587
1k
#30701
0>
#31035
1s
#31038
1`
#31063
1d
#31069
1x
#31079
0?
#35000
1#
1.
#35527
1>
#35917
1?
#37548
0.!
#37593
1@!
#38104
1A!
#38108
0?!
#38216
1-!
#39382
1B!
#40000
0#
0.
#40701
0>
#41009
0U!
1[!
1Z!
1W!
#41079
0?
#41647
1h
#41650
1U
#41755
0P
#41808
1l
#41960
0$!
#41975
08!
#42069
1G!
#42075
1%!
#42116
1;!
#42149
1*!
#42219
0(!
#42367
0v
#42404
0=!
#42436
1z
#42458
0m
#42511
0j
#42564
0f
#42604
1+!
#42633
1i
#42648
03!
#42674
1!!
#42834
0D!
#42841
0>!
#42891
1{
#42913
1n
#42975
0`
0k
#42990
0x
#43000
1O
#43088
1j
#43103
14!
#43184
0g
#43186
0d
#43216
1|
#43275
1#!
#43381
1\
#43384
1o
#43471
1S
#43529
1K
#43530
16!
#43542
1k
#43543
1`
#44758
1<
1,
#45000
1#
1.
#45157
07
0'
#45199
1=
1-
#45412
19
1)
#45527
1>
#45917
1?
#47548
1.!
#47593
0@!
#48150
0A!
#48283
1/!
#48285
0-!
#49427
0B!
#50000
0#
0.
#50701
0>
#51079
0?
#55000
1#
1.
#55527
1>
#55917
1?
#57548
0.!
10!
#58089
1y
0t
#58090
1F
1P
1}
#58121
1M
#58228
0T
0h
#58276
12!
#58348
0/!
#58372
0e
0p
#58378
1a
#58395
1]
#58399
0l
#58532
11!
#58543
0U
#58593
0Y
#58730
04!
#58950
0z
#58962
0~
#59020
13!
#59164
1q
#59186
0K
06!
#59189
1m
#59222
0u
#59387
0{
#59399
0!!
#59601
0r
#59626
0n
#59677
1v
#59725
0|
#59738
0O
#59941
0X
#59985
0S
#60000
0#
0.
#60022
0#!
#60074
0s
#60107
0\
#60111
0o
#60115
1D!
#60279
1x
#60701
0>
#61079
0?
#65000
1#
1.
#65527
1>
#65917
1?
#67548
00!
#67590
1G
#68021
1H
#68182
0F
#68388
1-!
#69270
1I
#70000
0#
0.
#70701
0>
#70893
0N!
1R!
0S!
0Q!
0P!
1O!
#71079
0?
#71270
0a
#71392
0y
#71445
1p
#71447
1T
#71466
1e
#71467
1t
#71642
1E!
#71844
0;!
#71863
0&!
#71865
0:!
#71923
1;!
#71933
1(!
#71936
0m
#71981
0<!
#71983
1'!
#71987
0j
#71996
17!
#72021
19!
#72039
1=!
#72041
0(!
#72099
1)!
#72121
0i
#72153
1f
#72157
0*!
#72179
1m
#72237
0q
#72299
0v
#72354
1{
#72372
1z
#72451
1u
0`
0k
#72494
1>!
#72509
0z
#72567
1~
#72576
1j
#72594
0+!
#72625
03!
#72634
1n
#72679
1|
#72744
1g
#72747
1d
#72766
0D!
#72906
1v
#72922
0x
#72934
1S
#73022
1!!
#73030
1k
#73031
1`
#73080
14!
#73102
1\
#73105
1o
#73344
1D!
#73348
1O
#73506
1K
#73507
16!
#73508
1x
#73623
1#!
#75000
1#
1.
#75527
1>
#75917
1?
#77548
1.!
#77590
0G
#78036
1?!
#78100
0H
#78314
0M
#78318
1l
#78320
0]
#78323
1a
#78379
0P
#78380
1y
0T
0}
#78382
0t
#78386
1h
#78449
0-!
#78457
0e
#78459
0p
#78514
01!
#78552
1U
1Y
#78629
02!
#79240
0u
#79250
1i
#79298
1z
#79308
0m
#79356
0~
0I
#79366
1q
#79414
13!
#79677
0v
#79687
0j
#79735
0{
#79745
0n
#79793
0!!
#79821
1r
#79851
04!
#80000
0#
0.
#80073
0|
#80132
0O
#80144
0D!
#80147
1X
#80151
0`
0k
#80226
0\
#80230
0o
#80288
1s
#80300
0x
#80307
0K
06!
#80333
0S
#80416
0#!
#80701
0>
#81079
0?
#85000
1#
1.
#85527
1>
#85917
1?
#87548
0.!
#87593
1@!
#88104
1A!
#88108
0?!
#88216
1-!
#89382
1B!
#90000
0#
0.
#90701
0>
#91009
0Z!
0W!
#91079
0?
#91732
0U
#91860
0l
#92010
0%!
#92051
0;!
#92068
1&!
#92100
0E!
#92109
1<!
#92152
18!
#92167
0=!
#92210
09!
#92388
1(!
#92412
0z
#92438
1v
#92446
0)!
#92470
1~
#92504
1*!
#92528
03!
#92570
1j
#92604
0>!
#92650
1m
#92708
0q
#92867
1{
#92876
1D!
#92925
1!!
#92959
1+!
#92983
14!
#93024
1k
#93025
1`
#93040
1x
#93105
1n
#93145
0r
#93192
1|
#93251
1O
#93409
1K
#93410
16!
#93447
1S
#93485
0X
#93526
1#!
#93573
1\
#93576
1o
#93618
0s
#94775
0<
0,
#95000
1#
1.
#95347
09
0)
#95527
1>
#95917
1?
#97548
1.!
#97593
0@!
#98150
0A!
#98283
1/!
#98285
0-!
#99427
0B!
#100000
0#
0.
#100701
0>
#101079
0?
#105000
1#
1.
#105527
1>
#105917
1?
#107548
0.!
10!
#108087
0y
#108090
1F
1P
1}
#108091
1t
#108121
1M
#108228
0h
#108234
1T
#108276
12!
#108348
0/!
#108373
0a
#108377
1e
1p
#108394
1l
#108395
1]
#108532
11!
#108544
1U
#108593
0Y
#108730
04!
#109039
0m
#109067
1z
#109075
1u
#109097
1q
#109108
0i
#109125
0~
#109183
13!
#109186
0K
06!
#109476
0n
#109504
0{
#109512
0v
#109545
0j
#109552
1r
#109562
0!!
#109842
0|
#109878
1X
#109901
0O
#109957
0\
#109961
0o
#109979
0D!
#110000
0#
0.
#110009
0`
0k
#110019
1s
#110102
0S
#110135
0x
#110185
0#!
#110701
0>
#111079
0?
#115000
1#
1.
#115527
1>
#115917
1?
#117548
00!
#117590
1G
#118021
1H
#118182
0F
#118388
1-!
#119270
1I
#120000
0#
0.
#120701
0>
#120893
0R!
1S!
1P!
0O!
#121079
0?
#121346
1a
#121393
0e
#121394
0t
#121455
1y
#121588
1H!
#121640
1F!
#121778
1E!
#121807
0'!
#121830
07!
#121933
1:!
#122019
1%!
#122021
1j
#122077
0&!
#122108
0f
#122123
1m
#122135
1'!
#122181
0q
#122186
1i
#122193
0(!
#122244
0m
#122251
1)!
#122288
1I!
#122302
1q
#122309
0*!
#122316
0z
#122360
0u
#122374
1~
#122418
1z
#122432
03!
#122475
1k
#122476
0~
1`
#122534
13!
#122623
0j
#122728
0g
#122730
0d
#122739
0r
#122746
0+!
#122757
0E
#123079
0X
#123087
0`
0k
#123212
0s
#125000
1#
1.
#125527
1>
#125917
1?
#127548
1.!
#127590
0G
#128050
1J!
#128100
0H
#128314
0M
#128316
0l
#128320
0]
#128321
0a
#128375
0y
#128379
0P
#128380
0T
0}
#128386
1h
#128387
1t
#128449
0-!
#128459
0p
#128463
1e
#128514
01!
#128550
0U
#128552
1Y
#128629
02!
#129356
0I
#130000
0#
0.
#130701
0>
#131079
0?
#135000
1#
1.
#135527
1>
#135917
1?
#137548
0.!
1K!
#137953
0h
#138092
0e
#138101
1]
#138102
1l
1p
#138213
0t
#138219
1P
1y
1}
#138357
1a
#138409
1T
#138485
0Y
#138495
1U
#138571
11!
12!
#138582
1M
#140000
0#
0.
#140701
0>
#141079
0?
#141784
15
1%
#145000
1#
1.
#145527
1>
#145917
1?
#150000
0#
0.
#150701
0>
#151079
0?
#155000
1#
1.
#155527
1>
#155917
1?
#160000
0#
0.
#160701
0>
#161079
0?
#165000
1#
1.
#165527
1>
#165917
1?
#170000
0#
0.
#170701
0>
#171079
0?
#175000
1#
1.
#175527
1>
#175917
1?
#180000
0#
0.
#180701
0>
#181079
0?
#185000
1#
1.
#185527
1>
#185917
1?
#190000
0#
0.
#190701
0>
#191079
0?
#195000
1#
1.
#195527
1>
